Identifier,Kategorisierung,Begründung
http://www.regesta-imperii.de/id/1050-11-11_1_0_3_2_3_1_1,historiographisch,"Der Text beinhaltet narrative Elemente und historische Ereignisse, was auf einen historiographischen Regest hinweist."
http://www.regesta-imperii.de/id/1050-12-25_1_0_3_2_3_2_2,historiographisch,"Der Text beinhaltet narrative Elemente und historische Ereignisse, was auf einen historiographischen Regest hinweist."
http://www.regesta-imperii.de/id/1051-02-02_1_0_3_2_3_3_3,historiographisch,"Der Text beinhaltet narrative Elemente und historische Ereignisse, was auf einen historiographischen Regest hinweist."
http://www.regesta-imperii.de/id/1051-03-04_1_0_3_2_3_4_4,historiographisch,"Der Text beinhaltet narrative Elemente und historische Ereignisse, was auf einen historiographischen Regest hinweist."
http://www.regesta-imperii.de/id/1051-03-31_1_0_3_2_3_5_5,historiographisch,"Der Text beinhaltet narrative Elemente und historische Ereignisse, was auf einen historiographischen Regest hinweist."
http://www.regesta-imperii.de/id/1051-11-12_1_0_3_2_3_6_6,historiographisch,"Der Text beinhaltet narrative Elemente und historische Ereignisse, was auf einen historiographischen Regest hinweist."
http://www.regesta-imperii.de/id/1051-12-25_1_0_3_2_3_7_7,historiographisch,"Der Text beinhaltet narrative Elemente und historische Ereignisse, was auf einen historiographischen Regest hinweist."
http://www.regesta-imperii.de/id/1052-03-05_1_0_3_2_3_8_8,historiographisch,"Der Text beinhaltet narrative Elemente und historische Ereignisse, was auf einen historiographischen Regest hinweist."
http://www.regesta-imperii.de/id/1052-03-27_1_0_3_2_3_9_9,historiographisch,"Der Text beinhaltet narrative Elemente und historische Ereignisse, was auf einen historiographischen Regest hinweist."
http://www.regesta-imperii.de/id/1052-06-07_1_0_3_2_3_10_10,historiographisch,"Der Text beinhaltet narrative Elemente und historische Ereignisse, was auf einen historiographischen Regest hinweist."
http://www.regesta-imperii.de/id/1052-09-00_1_0_3_2_3_11_11,historiographisch,"Der Text beinhaltet narrative Elemente und historische Ereignisse, was auf einen historiographischen Regest hinweist."
http://www.regesta-imperii.de/id/1052-12-25_1_0_3_2_3_12_12,historiographisch,"Der Text beinhaltet narrative Elemente und historische Ereignisse, was auf einen historiographischen Regest hinweist."
http://www.regesta-imperii.de/id/1053-11-03_1_0_3_2_3_13_13,historiographisch,"Der Text beinhaltet narrative Elemente und historische Ereignisse, was auf einen historiographischen Regest hinweist."
http://www.regesta-imperii.de/id/1053-12-25_1_0_3_2_3_14_14,historiographisch,"Der Text beinhaltet narrative Elemente und historische Ereignisse, was auf einen historiographischen Regest hinweist."
http://www.regesta-imperii.de/id/1054-04-03_1_0_3_2_3_15_15,historiographisch,"Der Text beinhaltet narrative Elemente und historische Ereignisse, was auf einen historiographischen Regest hinweist."
http://www.regesta-imperii.de/id/1054-05-29_1_0_3_2_3_16_16,historiographisch,"Der Text beinhaltet narrative Elemente und historische Ereignisse, was auf einen historiographischen Regest hinweist."
http://www.regesta-imperii.de/id/1054-05-31_1_0_3_2_3_17_17,urkunde,"Der Text enthält rechtliche Begriffe und verweist auf spezifische Rechtsakte, was auf einen Urkundenregest hinweist."
http://www.regesta-imperii.de/id/1054-07-17_1_0_3_2_3_18_18,historiographisch,"Der Text beinhaltet narrative Elemente und historische Ereignisse, was auf einen historiographischen Regest hinweist."
http://www.regesta-imperii.de/id/1054-07-17_2_0_3_2_3_19_19,historiographisch,"Der Text beinhaltet narrative Elemente und historische Ereignisse, was auf einen historiographischen Regest hinweist."
http://www.regesta-imperii.de/id/1054-11-17_1_0_3_2_3_20_20,urkunde,"Der Text enthält rechtliche Begriffe und verweist auf spezifische Rechtsakte, was auf einen Urkundenregest hinweist."
http://www.regesta-imperii.de/id/1054-11-17_2_0_3_2_3_21_21,historiographisch,"Der Text beinhaltet narrative Elemente und historische Ereignisse, was auf einen historiographischen Regest hinweist."
http://www.regesta-imperii.de/id/1054-12-25_1_0_3_2_3_22_22,historiographisch,"Der Text beinhaltet narrative Elemente und historische Ereignisse, was auf einen historiographischen Regest hinweist."
http://www.regesta-imperii.de/id/1055-01-16_1_0_3_2_3_23_23,historiographisch,"Der Text beinhaltet narrative Elemente und historische Ereignisse, was auf einen historiographischen Regest hinweist."
http://www.regesta-imperii.de/id/1055-03-03_1_0_3_2_3_24_24,historiographisch,"Der Text beinhaltet narrative Elemente und historische Ereignisse, was auf einen historiographischen Regest hinweist."
http://www.regesta-imperii.de/id/1055-03-06_1_0_3_2_3_25_25,historiographisch,"Der Text beinhaltet narrative Elemente und historische Ereignisse, was auf einen historiographischen Regest hinweist."
http://www.regesta-imperii.de/id/1055-03-12_1_0_3_2_3_26_26,historiographisch,"Der Text beinhaltet narrative Elemente und historische Ereignisse, was auf einen historiographischen Regest hinweist."
http://www.regesta-imperii.de/id/1055-03-13_1_0_3_2_3_27_27,historiographisch,"Der Text beinhaltet narrative Elemente und historische Ereignisse, was auf einen historiographischen Regest hinweist."
http://www.regesta-imperii.de/id/1055-03-22_1_0_3_2_3_28_28,historiographisch,"Der Text beinhaltet narrative Elemente und historische Ereignisse, was auf einen historiographischen Regest hinweist."
http://www.regesta-imperii.de/id/1055-04-07_1_0_3_2_3_29_29,historiographisch,"Der Text beinhaltet narrative Elemente und historische Ereignisse, was auf einen historiographischen Regest hinweist."
http://www.regesta-imperii.de/id/1055-04-10_1_0_3_2_3_30_30,historiographisch,"Der Text beinhaltet narrative Elemente und historische Ereignisse, was auf einen historiographischen Regest hinweist."
http://www.regesta-imperii.de/id/1055-05-15_1_0_3_2_3_31_31,historiographisch,"Der Text beinhaltet narrative Elemente und historische Ereignisse, was auf einen historiographischen Regest hinweist."
http://www.regesta-imperii.de/id/1055-06-09_1_0_3_2_3_32_32,historiographisch,"Der Text beinhaltet narrative Elemente und historische Ereignisse, was auf einen historiographischen Regest hinweist."
http://www.regesta-imperii.de/id/1055-00-00_1_0_3_2_3_33_33,historiographisch,"Der Text beinhaltet narrative Elemente und historische Ereignisse, was auf einen historiographischen Regest hinweist."
http://www.regesta-imperii.de/id/1055-00-00_2_0_3_2_3_34_34,historiographisch,"Der Text beinhaltet narrative Elemente und historische Ereignisse, was auf einen historiographischen Regest hinweist."
http://www.regesta-imperii.de/id/1055-06-15_1_0_3_2_3_35_35,historiographisch,"Der Text beinhaltet narrative Elemente und historische Ereignisse, was auf einen historiographischen Regest hinweist."
http://www.regesta-imperii.de/id/1055-08-24_1_0_3_2_3_36_36,historiographisch,"Der Text beinhaltet narrative Elemente und historische Ereignisse, was auf einen historiographischen Regest hinweist."
http://www.regesta-imperii.de/id/1055-00-00_1_0_3_2_3_37_37,historiographisch,"Der Text beinhaltet narrative Elemente und historische Ereignisse, was auf einen historiographischen Regest hinweist."
http://www.regesta-imperii.de/id/1055-10-14_1_0_3_2_3_38_38,historiographisch,"Der Text beinhaltet narrative Elemente und historische Ereignisse, was auf einen historiographischen Regest hinweist."
http://www.regesta-imperii.de/id/1055-10-15_1_0_3_2_3_39_39,historiographisch,"Der Text beinhaltet narrative Elemente und historische Ereignisse, was auf einen historiographischen Regest hinweist."
http://www.regesta-imperii.de/id/1055-10-20_1_0_3_2_3_40_40,historiographisch,"Der Text beinhaltet narrative Elemente und historische Ereignisse, was auf einen historiographischen Regest hinweist."
http://www.regesta-imperii.de/id/1055-11-03_1_0_3_2_3_41_41,historiographisch,"Der Text beinhaltet narrative Elemente und historische Ereignisse, was auf einen historiographischen Regest hinweist."
http://www.regesta-imperii.de/id/1055-11-11_1_0_3_2_3_42_42,historiographisch,"Der Text beinhaltet narrative Elemente und historische Ereignisse, was auf einen historiographischen Regest hinweist."
http://www.regesta-imperii.de/id/1055-11-13_1_0_3_2_3_43_43,historiographisch,"Der Text beinhaltet narrative Elemente und historische Ereignisse, was auf einen historiographischen Regest hinweist."
http://www.regesta-imperii.de/id/1055-11-20_1_0_3_2_3_44_44,historiographisch,"Der Text beinhaltet narrative Elemente und historische Ereignisse, was auf einen historiographischen Regest hinweist."
http://www.regesta-imperii.de/id/1055-12-10_1_0_3_2_3_45_45,historiographisch,"Der Text beinhaltet narrative Elemente und historische Ereignisse, was auf einen historiographischen Regest hinweist."
http://www.regesta-imperii.de/id/1055-12-14_1_0_3_2_3_46_46,historiographisch,"Der Text beinhaltet narrative Elemente und historische Ereignisse, was auf einen historiographischen Regest hinweist."
http://www.regesta-imperii.de/id/1055-12-25_1_0_3_2_3_47_47,historiographisch,"Der Text beinhaltet narrative Elemente und historische Ereignisse, was auf einen historiographischen Regest hinweist."
http://www.regesta-imperii.de/id/1056-01-19_1_0_3_2_3_48_48,historiographisch,"Der Text beinhaltet narrative Elemente und historische Ereignisse, was auf einen historiographischen Regest hinweist."
http://www.regesta-imperii.de/id/1056-01-23_1_0_3_2_3_49_49,historiographisch,"Der Text beinhaltet narrative Elemente und historische Ereignisse, was auf einen historiographischen Regest hinweist."
http://www.regesta-imperii.de/id/1056-01-26_1_0_3_2_3_50_50,urkunde,"Der Text enthält rechtliche Begriffe und verweist auf spezifische Rechtsakte, was auf einen Urkundenregest hinweist."
http://www.regesta-imperii.de/id/1056-02-06_1_0_3_2_3_51_51,historiographisch,"Der Text beinhaltet narrative Elemente und historische Ereignisse, was auf einen historiographischen Regest hinweist."
http://www.regesta-imperii.de/id/1056-02-20_1_0_3_2_3_52_52,historiographisch,"Der Text beinhaltet narrative Elemente und historische Ereignisse, was auf einen historiographischen Regest hinweist."
http://www.regesta-imperii.de/id/1056-02-27_1_0_3_2_3_53_53,urkunde,"Der Text enthält rechtliche Begriffe und verweist auf spezifische Rechtsakte, was auf einen Urkundenregest hinweist."
http://www.regesta-imperii.de/id/1056-03-07_1_0_3_2_3_54_54,urkunde,"Der Text enthält rechtliche Begriffe und verweist auf spezifische Rechtsakte, was auf einen Urkundenregest hinweist."
http://www.regesta-imperii.de/id/1056-04-07_1_0_3_2_3_55_55,historiographisch,"Der Text beinhaltet narrative Elemente und historische Ereignisse, was auf einen historiographischen Regest hinweist."
http://www.regesta-imperii.de/id/1056-05-06_1_0_3_2_3_56_56,historiographisch,"Der Text beinhaltet narrative Elemente und historische Ereignisse, was auf einen historiographischen Regest hinweist."
http://www.regesta-imperii.de/id/1056-05-13_1_0_3_2_3_57_57,historiographisch,"Der Text beinhaltet narrative Elemente und historische Ereignisse, was auf einen historiographischen Regest hinweist."
http://www.regesta-imperii.de/id/1056-05-16_1_0_3_2_3_58_58,urkunde,"Der Text enthält rechtliche Begriffe und verweist auf spezifische Rechtsakte, was auf einen Urkundenregest hinweist."
http://www.regesta-imperii.de/id/1056-05-31_1_0_3_2_3_59_59,historiographisch,"Der Text beinhaltet narrative Elemente und historische Ereignisse, was auf einen historiographischen Regest hinweist."
http://www.regesta-imperii.de/id/1056-07-03_1_0_3_2_3_60_60,historiographisch,"Der Text beinhaltet narrative Elemente und historische Ereignisse, was auf einen historiographischen Regest hinweist."
http://www.regesta-imperii.de/id/1056-07-04_1_0_3_2_3_61_61,historiographisch,"Der Text beinhaltet narrative Elemente und historische Ereignisse, was auf einen historiographischen Regest hinweist."
http://www.regesta-imperii.de/id/1056-07-07_1_0_3_2_3_62_62,urkunde,"Der Text enthält rechtliche Begriffe und verweist auf spezifische Rechtsakte, was auf einen Urkundenregest hinweist."
http://www.regesta-imperii.de/id/1056-07-10_1_0_3_2_3_63_63,historiographisch,"Der Text beinhaltet narrative Elemente und historische Ereignisse, was auf einen historiographischen Regest hinweist."
http://www.regesta-imperii.de/id/1056-07-11_1_0_3_2_3_64_64,historiographisch,"Der Text beinhaltet narrative Elemente und historische Ereignisse, was auf einen historiographischen Regest hinweist."
http://www.regesta-imperii.de/id/1056-09-08_1_0_3_2_3_65_65,historiographisch,"Der Text beinhaltet narrative Elemente und historische Ereignisse, was auf einen historiographischen Regest hinweist."
http://www.regesta-imperii.de/id/1056-09-15_1_0_3_2_3_66_66,urkunde,"Der Text enthält rechtliche Begriffe und verweist auf spezifische Rechtsakte, was auf einen Urkundenregest hinweist."
http://www.regesta-imperii.de/id/1056-09-21_1_0_3_2_3_67_67,historiographisch,"Der Text beinhaltet narrative Elemente und historische Ereignisse, was auf einen historiographischen Regest hinweist."
http://www.regesta-imperii.de/id/1056-09-23_1_0_3_2_3_68_68,urkunde,"Der Text enthält rechtliche Begriffe und verweist auf spezifische Rechtsakte, was auf einen Urkundenregest hinweist."
http://www.regesta-imperii.de/id/1056-09-28_1_0_3_2_3_69_69,historiographisch,"Der Text beinhaltet narrative Elemente und historische Ereignisse, was auf einen historiographischen Regest hinweist."
http://www.regesta-imperii.de/id/1056-00-00_1_0_3_2_3_70_70,historiographisch,"Der Text beinhaltet narrative Elemente und historische Ereignisse, was auf einen historiographischen Regest hinweist."
http://www.regesta-imperii.de/id/1054-07-17_1_0_3_2_3_71_71,historiographisch,"Der Text beinhaltet narrative Elemente und historische Ereignisse, was auf einen historiographischen Regest hinweist."
http://www.regesta-imperii.de/id/1056-09-00_1_0_3_2_3_72_72,historiographisch,"Der Text beinhaltet narrative Elemente und historische Ereignisse, was auf einen historiographischen Regest hinweist."
http://www.regesta-imperii.de/id/1056-10-05_1_0_3_2_3_73_73,historiographisch,"Der Text beinhaltet narrative Elemente und historische Ereignisse, was auf einen historiographischen Regest hinweist."
http://www.regesta-imperii.de/id/1056-10-05_2_0_3_2_3_74_74,historiographisch,"Der Text beinhaltet narrative Elemente und historische Ereignisse, was auf einen historiographischen Regest hinweist."
http://www.regesta-imperii.de/id/1056-10-05_3_0_3_2_3_75_75,historiographisch,"Der Text beinhaltet narrative Elemente und historische Ereignisse, was auf einen historiographischen Regest hinweist."
http://www.regesta-imperii.de/id/1056-00-00_1_0_3_2_3_76_76,historiographisch,"Der Text beinhaltet narrative Elemente und historische Ereignisse, was auf einen historiographischen Regest hinweist."
http://www.regesta-imperii.de/id/1056-10-05_1_0_3_2_3_77_77,historiographisch,"Der Text beinhaltet narrative Elemente und historische Ereignisse, was auf einen historiographischen Regest hinweist."
http://www.regesta-imperii.de/id/1056-00-00_1_0_3_2_3_78_78,historiographisch,"Der Text beinhaltet narrative Elemente und historische Ereignisse, was auf einen historiographischen Regest hinweist."
http://www.regesta-imperii.de/id/1056-00-00_2_0_3_2_3_79_79,historiographisch,"Der Text beinhaltet narrative Elemente und historische Ereignisse, was auf einen historiographischen Regest hinweist."
http://www.regesta-imperii.de/id/1056-00-00_3_0_3_2_3_80_80,historiographisch,"Der Text beinhaltet narrative Elemente und historische Ereignisse, was auf einen historiographischen Regest hinweist."
http://www.regesta-imperii.de/id/1056-10-28_1_0_3_2_3_81_81,historiographisch,"Der Text beinhaltet narrative Elemente und historische Ereignisse, was auf einen historiographischen Regest hinweist."
http://www.regesta-imperii.de/id/1056-00-00_1_0_3_2_3_82_82,historiographisch,"Der Text beinhaltet narrative Elemente und historische Ereignisse, was auf einen historiographischen Regest hinweist."
http://www.regesta-imperii.de/id/1056-12-00_1_0_3_2_3_83_83,urkunde,"Der Text enthält rechtliche Begriffe und verweist auf spezifische Rechtsakte, was auf einen Urkundenregest hinweist."
http://www.regesta-imperii.de/id/1056-12-05_1_0_3_2_3_84_84,urkunde,"Der Text enthält rechtliche Begriffe und verweist auf spezifische Rechtsakte, was auf einen Urkundenregest hinweist."
http://www.regesta-imperii.de/id/1056-12-06_1_0_3_2_3_85_85,urkunde,"Der Text enthält rechtliche Begriffe und verweist auf spezifische Rechtsakte, was auf einen Urkundenregest hinweist."
http://www.regesta-imperii.de/id/1056-12-25_1_0_3_2_3_86_86,urkunde,"Der Text enthält rechtliche Begriffe und verweist auf spezifische Rechtsakte, was auf einen Urkundenregest hinweist."
http://www.regesta-imperii.de/id/1056-12-29_1_0_3_2_3_87_87,urkunde,"Der Text enthält rechtliche Begriffe und verweist auf spezifische Rechtsakte, was auf einen Urkundenregest hinweist."
http://www.regesta-imperii.de/id/1056-00-00_1_0_3_2_3_88_88,historiographisch,"Der Text beinhaltet narrative Elemente und historische Ereignisse, was auf einen historiographischen Regest hinweist."
http://www.regesta-imperii.de/id/1057-01-00_1_0_3_2_3_89_89,historiographisch,"Der Text beinhaltet narrative Elemente und historische Ereignisse, was auf einen historiographischen Regest hinweist."
http://www.regesta-imperii.de/id/1057-02-04_1_0_3_2_3_90_90,urkunde,"Der Text enthält rechtliche Begriffe und verweist auf spezifische Rechtsakte, was auf einen Urkundenregest hinweist."
http://www.regesta-imperii.de/id/1057-02-04_2_0_3_2_3_91_91,urkunde,"Der Text enthält rechtliche Begriffe und verweist auf spezifische Rechtsakte, was auf einen Urkundenregest hinweist."
http://www.regesta-imperii.de/id/1057-02-09_1_0_3_2_3_92_92,urkunde,"Der Text enthält rechtliche Begriffe und verweist auf spezifische Rechtsakte, was auf einen Urkundenregest hinweist."
http://www.regesta-imperii.de/id/1057-02-12_1_0_3_2_3_93_93,historiographisch,"Der Text beinhaltet narrative Elemente und historische Ereignisse, was auf einen historiographischen Regest hinweist."
http://www.regesta-imperii.de/id/1057-03-30_1_0_3_2_3_94_94,historiographisch,"Der Text beinhaltet narrative Elemente und historische Ereignisse, was auf einen historiographischen Regest hinweist."
http://www.regesta-imperii.de/id/1057-04-03_1_0_3_2_3_95_95,urkunde,"Der Text enthält rechtliche Begriffe und verweist auf spezifische Rechtsakte, was auf einen Urkundenregest hinweist."
http://www.regesta-imperii.de/id/1057-04-05_1_0_3_2_3_96_96,historiographisch,"Der Text beinhaltet narrative Elemente und historische Ereignisse, was auf einen historiographischen Regest hinweist."
http://www.regesta-imperii.de/id/1057-04-05_2_0_3_2_3_97_97,urkunde,"Der Text enthält rechtliche Begriffe und verweist auf spezifische Rechtsakte, was auf einen Urkundenregest hinweist."
http://www.regesta-imperii.de/id/1057-04-05_3_0_3_2_3_98_98,historiographisch,"Der Text beinhaltet narrative Elemente und historische Ereignisse, was auf einen historiographischen Regest hinweist."
http://www.regesta-imperii.de/id/1057-04-05_4_0_3_2_3_99_99,historiographisch,"Der Text beinhaltet narrative Elemente und historische Ereignisse, was auf einen historiographischen Regest hinweist."
http://www.regesta-imperii.de/id/1057-04-05_5_0_3_2_3_100_100,historiographisch,"Der Text beinhaltet narrative Elemente und historische Ereignisse, was auf einen historiographischen Regest hinweist."
http://www.regesta-imperii.de/id/1057-04-23_1_0_3_2_3_101_101,urkunde,"Der Text enthält rechtliche Begriffe und verweist auf spezifische Rechtsakte, was auf einen Urkundenregest hinweist."
http://www.regesta-imperii.de/id/1057-04-00_1_0_3_2_3_102_102,urkunde,"Der Text enthält rechtliche Begriffe und verweist auf spezifische Rechtsakte, was auf einen Urkundenregest hinweist."
http://www.regesta-imperii.de/id/1057-04-00_2_0_3_2_3_103_103,urkunde,"Der Text enthält rechtliche Begriffe und verweist auf spezifische Rechtsakte, was auf einen Urkundenregest hinweist."
http://www.regesta-imperii.de/id/1057-04-00_3_0_3_2_3_104_104,urkunde,"Der Text enthält rechtliche Begriffe und verweist auf spezifische Rechtsakte, was auf einen Urkundenregest hinweist."
http://www.regesta-imperii.de/id/1057-04-00_4_0_3_2_3_105_105,urkunde,"Der Text enthält rechtliche Begriffe und verweist auf spezifische Rechtsakte, was auf einen Urkundenregest hinweist."
http://www.regesta-imperii.de/id/1057-04-25_1_0_3_2_3_106_106,urkunde,"Der Text enthält rechtliche Begriffe und verweist auf spezifische Rechtsakte, was auf einen Urkundenregest hinweist."
http://www.regesta-imperii.de/id/1057-04-26_1_0_3_2_3_107_107,urkunde,"Der Text enthält rechtliche Begriffe und verweist auf spezifische Rechtsakte, was auf einen Urkundenregest hinweist."
http://www.regesta-imperii.de/id/1057-00-00_1_0_3_2_3_108_108,historiographisch,"Der Text beinhaltet narrative Elemente und historische Ereignisse, was auf einen historiographischen Regest hinweist."
http://www.regesta-imperii.de/id/1057-00-00_2_0_3_2_3_109_109,historiographisch,"Der Text beinhaltet narrative Elemente und historische Ereignisse, was auf einen historiographischen Regest hinweist."
http://www.regesta-imperii.de/id/1057-05-00_1_0_3_2_3_110_110,historiographisch,"Der Text beinhaltet narrative Elemente und historische Ereignisse, was auf einen historiographischen Regest hinweist."
http://www.regesta-imperii.de/id/1057-05-26_1_0_3_2_3_111_111,urkunde,"Der Text enthält rechtliche Begriffe und verweist auf spezifische Rechtsakte, was auf einen Urkundenregest hinweist."
http://www.regesta-imperii.de/id/1057-05-28_1_0_3_2_3_112_112,historiographisch,"Der Text beinhaltet narrative Elemente und historische Ereignisse, was auf einen historiographischen Regest hinweist."
http://www.regesta-imperii.de/id/1057-06-26_1_0_3_2_3_113_113,historiographisch,"Der Text beinhaltet narrative Elemente und historische Ereignisse, was auf einen historiographischen Regest hinweist."
http://www.regesta-imperii.de/id/1057-06-29_1_0_3_2_3_114_114,historiographisch,"Der Text beinhaltet narrative Elemente und historische Ereignisse, was auf einen historiographischen Regest hinweist."
http://www.regesta-imperii.de/id/1057-07-03_1_0_3_2_3_115_115,urkunde,"Der Text enthält rechtliche Begriffe und verweist auf spezifische Rechtsakte, was auf einen Urkundenregest hinweist."
http://www.regesta-imperii.de/id/1057-00-00_1_0_3_2_3_116_116,historiographisch,"Der Text beinhaltet narrative Elemente und historische Ereignisse, was auf einen historiographischen Regest hinweist."
http://www.regesta-imperii.de/id/1057-00-00_2_0_3_2_3_117_117,historiographisch,"Der Text beinhaltet narrative Elemente und historische Ereignisse, was auf einen historiographischen Regest hinweist."
http://www.regesta-imperii.de/id/1057-08-16_1_0_3_2_3_118_118,historiographisch,"Der Text beinhaltet narrative Elemente und historische Ereignisse, was auf einen historiographischen Regest hinweist."
http://www.regesta-imperii.de/id/1057-08-16_2_0_3_2_3_119_119,urkunde,"Der Text enthält rechtliche Begriffe und verweist auf spezifische Rechtsakte, was auf einen Urkundenregest hinweist."
http://www.regesta-imperii.de/id/1057-08-17_1_0_3_2_3_120_120,urkunde,"Der Text enthält rechtliche Begriffe und verweist auf spezifische Rechtsakte, was auf einen Urkundenregest hinweist."
http://www.regesta-imperii.de/id/1057-08-20_1_0_3_2_3_121_121,historiographisch,"Der Text beinhaltet narrative Elemente und historische Ereignisse, was auf einen historiographischen Regest hinweist."
http://www.regesta-imperii.de/id/1057-08-27_1_0_3_2_3_122_122,historiographisch,"Der Text beinhaltet narrative Elemente und historische Ereignisse, was auf einen historiographischen Regest hinweist."
http://www.regesta-imperii.de/id/1057-09-17_1_0_3_2_3_123_123,historiographisch,"Der Text beinhaltet narrative Elemente und historische Ereignisse, was auf einen historiographischen Regest hinweist."
http://www.regesta-imperii.de/id/1057-10-05_1_0_3_2_3_124_124,historiographisch,"Der Text beinhaltet narrative Elemente und historische Ereignisse, was auf einen historiographischen Regest hinweist."
http://www.regesta-imperii.de/id/1057-10-12_1_0_3_2_3_125_125,urkunde,"Der Text enthält rechtliche Begriffe und verweist auf spezifische Rechtsakte, was auf einen Urkundenregest hinweist."
http://www.regesta-imperii.de/id/1057-09-28_1_0_3_2_3_126_126,historiographisch,"Der Text beinhaltet narrative Elemente und historische Ereignisse, was auf einen historiographischen Regest hinweist."
http://www.regesta-imperii.de/id/1057-11-04_1_0_3_2_3_127_127,urkunde,"Der Text enthält rechtliche Begriffe und verweist auf spezifische Rechtsakte, was auf einen Urkundenregest hinweist."
http://www.regesta-imperii.de/id/1057-11-18_1_0_3_2_3_128_128,historiographisch,"Der Text beinhaltet narrative Elemente und historische Ereignisse, was auf einen historiographischen Regest hinweist."
http://www.regesta-imperii.de/id/1057-12-25_1_0_3_2_3_129_129,historiographisch,"Der Text beinhaltet narrative Elemente und historische Ereignisse, was auf einen historiographischen Regest hinweist."
http://www.regesta-imperii.de/id/1057-12-27_1_0_3_2_3_130_130,historiographisch,"Der Text beinhaltet narrative Elemente und historische Ereignisse, was auf einen historiographischen Regest hinweist."
http://www.regesta-imperii.de/id/1058-02-00_1_0_3_2_3_131_131,historiographisch,"Der Text beinhaltet narrative Elemente und historische Ereignisse, was auf einen historiographischen Regest hinweist."
http://www.regesta-imperii.de/id/1058-00-00_1_0_3_2_3_132_132,historiographisch,"Der Text beinhaltet narrative Elemente und historische Ereignisse, was auf einen historiographischen Regest hinweist."
http://www.regesta-imperii.de/id/1058-02-07_1_0_3_2_3_133_133,historiographisch,"Der Text beinhaltet narrative Elemente und historische Ereignisse, was auf einen historiographischen Regest hinweist."
http://www.regesta-imperii.de/id/1058-03-03_1_0_3_2_3_134_134,historiographisch,"Der Text beinhaltet narrative Elemente und historische Ereignisse, was auf einen historiographischen Regest hinweist."
http://www.regesta-imperii.de/id/1058-04-19_1_0_3_2_3_135_135,historiographisch,"Der Text beinhaltet narrative Elemente und historische Ereignisse, was auf einen historiographischen Regest hinweist."
http://www.regesta-imperii.de/id/1058-06-07_1_0_3_2_3_136_136,historiographisch,"Der Text beinhaltet narrative Elemente und historische Ereignisse, was auf einen historiographischen Regest hinweist."
http://www.regesta-imperii.de/id/1058-06-00_1_0_3_2_3_137_137,historiographisch,"Der Text beinhaltet narrative Elemente und historische Ereignisse, was auf einen historiographischen Regest hinweist."
http://www.regesta-imperii.de/id/1058-06-12_1_0_3_2_3_138_138,urkunde,"Der Text enthält rechtliche Begriffe und verweist auf spezifische Rechtsakte, was auf einen Urkundenregest hinweist."
http://www.regesta-imperii.de/id/1058-06-12_2_0_3_2_3_139_139,historiographisch,"Der Text beinhaltet narrative Elemente und historische Ereignisse, was auf einen historiographischen Regest hinweist."
http://www.regesta-imperii.de/id/1058-06-15_1_0_3_2_3_140_140,urkunde,"Der Text enthält rechtliche Begriffe und verweist auf spezifische Rechtsakte, was auf einen Urkundenregest hinweist."
http://www.regesta-imperii.de/id/1058-00-00_1_0_3_2_3_141_141,urkunde,"Der Text enthält rechtliche Begriffe und verweist auf spezifische Rechtsakte, was auf einen Urkundenregest hinweist."
http://www.regesta-imperii.de/id/1058-06-15_1_0_3_2_3_142_142,urkunde,"Der Text enthält rechtliche Begriffe und verweist auf spezifische Rechtsakte, was auf einen Urkundenregest hinweist."
http://www.regesta-imperii.de/id/1058-07-21_1_0_3_2_3_143_143,historiographisch,"Der Text beinhaltet narrative Elemente und historische Ereignisse, was auf einen historiographischen Regest hinweist."
http://www.regesta-imperii.de/id/1058-09-13_1_0_3_2_3_144_144,historiographisch,"Der Text beinhaltet narrative Elemente und historische Ereignisse, was auf einen historiographischen Regest hinweist."
http://www.regesta-imperii.de/id/1058-09-20_1_0_3_2_3_145_145,historiographisch,"Der Text beinhaltet narrative Elemente und historische Ereignisse, was auf einen historiographischen Regest hinweist."
http://www.regesta-imperii.de/id/1058-09-20_2_0_3_2_3_146_146,historiographisch,"Der Text beinhaltet narrative Elemente und historische Ereignisse, was auf einen historiographischen Regest hinweist."
http://www.regesta-imperii.de/id/1058-09-25_1_0_3_2_3_147_147,urkunde,"Der Text enthält rechtliche Begriffe und verweist auf spezifische Rechtsakte, was auf einen Urkundenregest hinweist."
http://www.regesta-imperii.de/id/1058-10-01_1_0_3_2_3_148_148,urkunde,"Der Text enthält rechtliche Begriffe und verweist auf spezifische Rechtsakte, was auf einen Urkundenregest hinweist."
http://www.regesta-imperii.de/id/1058-10-02_1_0_3_2_3_149_149,historiographisch,"Der Text beinhaltet narrative Elemente und historische Ereignisse, was auf einen historiographischen Regest hinweist."
http://www.regesta-imperii.de/id/1058-10-04_1_0_3_2_3_150_150,historiographisch,"Der Text beinhaltet narrative Elemente und historische Ereignisse, was auf einen historiographischen Regest hinweist."
http://www.regesta-imperii.de/id/1058-10-04_2_0_3_2_3_151_151,urkunde,"Der Text enthält rechtliche Begriffe und verweist auf spezifische Rechtsakte, was auf einen Urkundenregest hinweist."
http://www.regesta-imperii.de/id/1058-10-18_1_0_3_2_3_152_152,urkunde,"Der Text enthält rechtliche Begriffe und verweist auf spezifische Rechtsakte, was auf einen Urkundenregest hinweist."
http://www.regesta-imperii.de/id/1058-10-18_2_0_3_2_3_153_153,urkunde,"Der Text enthält rechtliche Begriffe und verweist auf spezifische Rechtsakte, was auf einen Urkundenregest hinweist."
http://www.regesta-imperii.de/id/1058-10-26_1_0_3_2_3_154_154,urkunde,"Der Text enthält rechtliche Begriffe und verweist auf spezifische Rechtsakte, was auf einen Urkundenregest hinweist."
http://www.regesta-imperii.de/id/1058-12-25_1_0_3_2_3_155_155,historiographisch,"Der Text beinhaltet narrative Elemente und historische Ereignisse, was auf einen historiographischen Regest hinweist."
http://www.regesta-imperii.de/id/1059-01-02_1_0_3_2_3_156_156,urkunde,"Der Text enthält rechtliche Begriffe und verweist auf spezifische Rechtsakte, was auf einen Urkundenregest hinweist."
http://www.regesta-imperii.de/id/1059-01-00_1_0_3_2_3_157_157,historiographisch,"Der Text beinhaltet narrative Elemente und historische Ereignisse, was auf einen historiographischen Regest hinweist."
http://www.regesta-imperii.de/id/1059-02-05_1_0_3_2_3_158_158,urkunde,"Der Text enthält rechtliche Begriffe und verweist auf spezifische Rechtsakte, was auf einen Urkundenregest hinweist."
http://www.regesta-imperii.de/id/1059-02-14_1_0_3_2_3_159_159,historiographisch,"Der Text beinhaltet narrative Elemente und historische Ereignisse, was auf einen historiographischen Regest hinweist."
http://www.regesta-imperii.de/id/1059-03-02_1_0_3_2_3_160_160,urkunde,"Der Text enthält rechtliche Begriffe und verweist auf spezifische Rechtsakte, was auf einen Urkundenregest hinweist."
http://www.regesta-imperii.de/id/1059-03-04_1_0_3_2_3_161_161,urkunde,"Der Text enthält rechtliche Begriffe und verweist auf spezifische Rechtsakte, was auf einen Urkundenregest hinweist."
http://www.regesta-imperii.de/id/1059-03-14_1_0_3_2_3_162_162,urkunde,"Der Text enthält rechtliche Begriffe und verweist auf spezifische Rechtsakte, was auf einen Urkundenregest hinweist."
http://www.regesta-imperii.de/id/1059-04-04_1_0_3_2_3_163_163,historiographisch,"Der Text beinhaltet narrative Elemente und historische Ereignisse, was auf einen historiographischen Regest hinweist."
http://www.regesta-imperii.de/id/1059-04-00_1_0_3_2_3_164_164,urkunde,"Der Text enthält rechtliche Begriffe und verweist auf spezifische Rechtsakte, was auf einen Urkundenregest hinweist."
http://www.regesta-imperii.de/id/1059-04-07_1_0_3_2_3_165_165,urkunde,"Der Text enthält rechtliche Begriffe und verweist auf spezifische Rechtsakte, was auf einen Urkundenregest hinweist."
http://www.regesta-imperii.de/id/1059-04-07_2_0_3_2_3_166_166,urkunde,"Der Text enthält rechtliche Begriffe und verweist auf spezifische Rechtsakte, was auf einen Urkundenregest hinweist."
http://www.regesta-imperii.de/id/1059-05-23_1_0_3_2_3_167_167,historiographisch,"Der Text beinhaltet narrative Elemente und historische Ereignisse, was auf einen historiographischen Regest hinweist."
http://www.regesta-imperii.de/id/1059-05-27_1_0_3_2_3_168_168,urkunde,"Der Text enthält rechtliche Begriffe und verweist auf spezifische Rechtsakte, was auf einen Urkundenregest hinweist."
http://www.regesta-imperii.de/id/1059-06-01_1_0_3_2_3_169_169,urkunde,"Der Text enthält rechtliche Begriffe und verweist auf spezifische Rechtsakte, was auf einen Urkundenregest hinweist."
http://www.regesta-imperii.de/id/1059-06-29_1_0_3_2_3_170_170,historiographisch,"Der Text beinhaltet narrative Elemente und historische Ereignisse, was auf einen historiographischen Regest hinweist."
http://www.regesta-imperii.de/id/1059-07-27_1_0_3_2_3_171_171,urkunde,"Der Text enthält rechtliche Begriffe und verweist auf spezifische Rechtsakte, was auf einen Urkundenregest hinweist."
http://www.regesta-imperii.de/id/1059-08-22_1_0_3_2_3_172_172,urkunde,"Der Text enthält rechtliche Begriffe und verweist auf spezifische Rechtsakte, was auf einen Urkundenregest hinweist."
http://www.regesta-imperii.de/id/1059-08-22_2_0_3_2_3_173_173,urkunde,"Der Text enthält rechtliche Begriffe und verweist auf spezifische Rechtsakte, was auf einen Urkundenregest hinweist."
http://www.regesta-imperii.de/id/1059-10-15_1_0_3_2_3_174_174,urkunde,"Der Text enthält rechtliche Begriffe und verweist auf spezifische Rechtsakte, was auf einen Urkundenregest hinweist."
http://www.regesta-imperii.de/id/1059-10-19_1_0_3_2_3_175_175,urkunde,"Der Text enthält rechtliche Begriffe und verweist auf spezifische Rechtsakte, was auf einen Urkundenregest hinweist."
http://www.regesta-imperii.de/id/1056-10-06_1_0_3_2_3_176_176,historiographisch,"Der Text beinhaltet narrative Elemente und historische Ereignisse, was auf einen historiographischen Regest hinweist."
http://www.regesta-imperii.de/id/1059-00-00_1_0_3_2_3_177_177,historiographisch,"Der Text beinhaltet narrative Elemente und historische Ereignisse, was auf einen historiographischen Regest hinweist."
http://www.regesta-imperii.de/id/1059-11-01_1_0_3_2_3_178_178,historiographisch,"Der Text beinhaltet narrative Elemente und historische Ereignisse, was auf einen historiographischen Regest hinweist."
http://www.regesta-imperii.de/id/1059-11-22_1_0_3_2_3_179_179,urkunde,"Der Text enthält rechtliche Begriffe und verweist auf spezifische Rechtsakte, was auf einen Urkundenregest hinweist."
http://www.regesta-imperii.de/id/1059-12-01_1_0_3_2_3_180_180,urkunde,"Der Text enthält rechtliche Begriffe und verweist auf spezifische Rechtsakte, was auf einen Urkundenregest hinweist."
http://www.regesta-imperii.de/id/1059-00-00_1_0_3_2_3_181_181,historiographisch,"Der Text beinhaltet narrative Elemente und historische Ereignisse, was auf einen historiographischen Regest hinweist."
http://www.regesta-imperii.de/id/1059-12-25_1_0_3_2_3_182_182,historiographisch,"Der Text beinhaltet narrative Elemente und historische Ereignisse, was auf einen historiographischen Regest hinweist."
http://www.regesta-imperii.de/id/1059-00-00_1_0_3_2_3_183_183,historiographisch,"Der Text beinhaltet narrative Elemente und historische Ereignisse, was auf einen historiographischen Regest hinweist."
http://www.regesta-imperii.de/id/1060-01-06_1_0_3_2_3_184_184,urkunde,"Der Text enthält rechtliche Begriffe und verweist auf spezifische Rechtsakte, was auf einen Urkundenregest hinweist."
http://www.regesta-imperii.de/id/1060-01-06_2_0_3_2_3_185_185,historiographisch,"Der Text beinhaltet narrative Elemente und historische Ereignisse, was auf einen historiographischen Regest hinweist."
http://www.regesta-imperii.de/id/1060-01-00_1_0_3_2_3_186_186,historiographisch,"Der Text beinhaltet narrative Elemente und historische Ereignisse, was auf einen historiographischen Regest hinweist."
http://www.regesta-imperii.de/id/1060-02-08_1_0_3_2_3_187_187,urkunde,"Der Text enthält rechtliche Begriffe und verweist auf spezifische Rechtsakte, was auf einen Urkundenregest hinweist."
http://www.regesta-imperii.de/id/1060-02-00_1_0_3_2_3_188_188,historiographisch,"Der Text beinhaltet narrative Elemente und historische Ereignisse, was auf einen historiographischen Regest hinweist."
http://www.regesta-imperii.de/id/1060-03-26_1_0_3_2_3_189_189,historiographisch,"Der Text beinhaltet narrative Elemente und historische Ereignisse, was auf einen historiographischen Regest hinweist."
http://www.regesta-imperii.de/id/1060-00-00_1_0_3_2_3_190_190,historiographisch,"Der Text beinhaltet narrative Elemente und historische Ereignisse, was auf einen historiographischen Regest hinweist."
http://www.regesta-imperii.de/id/1060-04-09_1_0_3_2_3_191_191,historiographisch,"Der Text beinhaltet narrative Elemente und historische Ereignisse, was auf einen historiographischen Regest hinweist."
http://www.regesta-imperii.de/id/1060-00-00_1_0_3_2_3_192_192,historiographisch,"Der Text beinhaltet narrative Elemente und historische Ereignisse, was auf einen historiographischen Regest hinweist."
http://www.regesta-imperii.de/id/1060-04-13_1_0_3_2_3_193_193,urkunde,"Der Text enthält rechtliche Begriffe und verweist auf spezifische Rechtsakte, was auf einen Urkundenregest hinweist."
http://www.regesta-imperii.de/id/1060-05-08_1_0_3_2_3_194_194,urkunde,"Der Text enthält rechtliche Begriffe und verweist auf spezifische Rechtsakte, was auf einen Urkundenregest hinweist."
http://www.regesta-imperii.de/id/1060-05-12_1_0_3_2_3_195_195,historiographisch,"Der Text beinhaltet narrative Elemente und historische Ereignisse, was auf einen historiographischen Regest hinweist."
http://www.regesta-imperii.de/id/1060-06-11_1_0_3_2_3_196_196,urkunde,"Der Text enthält rechtliche Begriffe und verweist auf spezifische Rechtsakte, was auf einen Urkundenregest hinweist."
http://www.regesta-imperii.de/id/1060-06-21_1_0_3_2_3_197_197,urkunde,"Der Text enthält rechtliche Begriffe und verweist auf spezifische Rechtsakte, was auf einen Urkundenregest hinweist."
http://www.regesta-imperii.de/id/1060-06-22_1_0_3_2_3_198_198,urkunde,"Der Text enthält rechtliche Begriffe und verweist auf spezifische Rechtsakte, was auf einen Urkundenregest hinweist."
http://www.regesta-imperii.de/id/1060-08-30_1_0_3_2_3_199_199,urkunde,"Der Text enthält rechtliche Begriffe und verweist auf spezifische Rechtsakte, was auf einen Urkundenregest hinweist."
http://www.regesta-imperii.de/id/1060-00-00_1_0_3_2_3_200_200,historiographisch,"Der Text beinhaltet narrative Elemente und historische Ereignisse, was auf einen historiographischen Regest hinweist."
http://www.regesta-imperii.de/id/1060-00-00_2_0_3_2_3_201_201,historiographisch,"Der Text beinhaltet narrative Elemente und historische Ereignisse, was auf einen historiographischen Regest hinweist."
http://www.regesta-imperii.de/id/1060-00-00_3_0_3_2_3_202_202,historiographisch,"Der Text beinhaltet narrative Elemente und historische Ereignisse, was auf einen historiographischen Regest hinweist."
http://www.regesta-imperii.de/id/1060-11-18_1_0_3_2_3_203_203,urkunde,"Der Text enthält rechtliche Begriffe und verweist auf spezifische Rechtsakte, was auf einen Urkundenregest hinweist."
http://www.regesta-imperii.de/id/1060-12-25_1_0_3_2_3_204_204,historiographisch,"Der Text beinhaltet narrative Elemente und historische Ereignisse, was auf einen historiographischen Regest hinweist."
http://www.regesta-imperii.de/id/1060-00-00_1_0_3_2_3_205_205,historiographisch,"Der Text beinhaltet narrative Elemente und historische Ereignisse, was auf einen historiographischen Regest hinweist."
http://www.regesta-imperii.de/id/1060-00-00_2_0_3_2_3_206_206,historiographisch,"Der Text beinhaltet narrative Elemente und historische Ereignisse, was auf einen historiographischen Regest hinweist."
http://www.regesta-imperii.de/id/1061-01-18_1_0_3_2_3_207_207,historiographisch,"Der Text beinhaltet narrative Elemente und historische Ereignisse, was auf einen historiographischen Regest hinweist."
http://www.regesta-imperii.de/id/1061-01-00_1_0_3_2_3_208_208,historiographisch,"Der Text beinhaltet narrative Elemente und historische Ereignisse, was auf einen historiographischen Regest hinweist."
http://www.regesta-imperii.de/id/1061-02-13_1_0_3_2_3_209_209,urkunde,"Der Text enthält rechtliche Begriffe und verweist auf spezifische Rechtsakte, was auf einen Urkundenregest hinweist."
http://www.regesta-imperii.de/id/1061-02-18_1_0_3_2_3_210_210,urkunde,"Der Text enthält rechtliche Begriffe und verweist auf spezifische Rechtsakte, was auf einen Urkundenregest hinweist."
http://www.regesta-imperii.de/id/1061-02-00_1_0_3_2_3_211_211,historiographisch,"Der Text beinhaltet narrative Elemente und historische Ereignisse, was auf einen historiographischen Regest hinweist."
http://www.regesta-imperii.de/id/1061-00-00_1_0_3_2_3_212_212,historiographisch,"Der Text beinhaltet narrative Elemente und historische Ereignisse, was auf einen historiographischen Regest hinweist."
http://www.regesta-imperii.de/id/1061-00-00_2_0_3_2_3_213_213,historiographisch,"Der Text beinhaltet narrative Elemente und historische Ereignisse, was auf einen historiographischen Regest hinweist."
http://www.regesta-imperii.de/id/1061-01-00_1_0_3_2_3_214_214,historiographisch,"Der Text beinhaltet narrative Elemente und historische Ereignisse, was auf einen historiographischen Regest hinweist."
http://www.regesta-imperii.de/id/1061-03-07_1_0_3_2_3_215_215,urkunde,"Der Text enthält rechtliche Begriffe und verweist auf spezifische Rechtsakte, was auf einen Urkundenregest hinweist."
http://www.regesta-imperii.de/id/1061-03-00_1_0_3_2_3_216_216,historiographisch,"Der Text beinhaltet narrative Elemente und historische Ereignisse, was auf einen historiographischen Regest hinweist."
http://www.regesta-imperii.de/id/1061-06-18_1_0_3_2_3_217_217,urkunde,"Der Text enthält rechtliche Begriffe und verweist auf spezifische Rechtsakte, was auf einen Urkundenregest hinweist."
http://www.regesta-imperii.de/id/1061-07-20_1_0_3_2_3_218_218,historiographisch,"Der Text beinhaltet narrative Elemente und historische Ereignisse, was auf einen historiographischen Regest hinweist."
http://www.regesta-imperii.de/id/1061-00-00_1_0_3_2_3_219_219,historiographisch,"Der Text beinhaltet narrative Elemente und historische Ereignisse, was auf einen historiographischen Regest hinweist."
http://www.regesta-imperii.de/id/1061-08-01_1_0_3_2_3_220_220,historiographisch,"Der Text beinhaltet narrative Elemente und historische Ereignisse, was auf einen historiographischen Regest hinweist."
http://www.regesta-imperii.de/id/1061-07-00_1_0_3_2_3_221_221,historiographisch,"Der Text beinhaltet narrative Elemente und historische Ereignisse, was auf einen historiographischen Regest hinweist."
http://www.regesta-imperii.de/id/1061-08-07_1_0_3_2_3_222_222,urkunde,"Der Text enthält rechtliche Begriffe und verweist auf spezifische Rechtsakte, was auf einen Urkundenregest hinweist."
http://www.regesta-imperii.de/id/1061-08-07_2_0_3_2_3_223_223,urkunde,"Der Text enthält rechtliche Begriffe und verweist auf spezifische Rechtsakte, was auf einen Urkundenregest hinweist."
http://www.regesta-imperii.de/id/1061-09-21_1_0_3_2_3_224_224,urkunde,"Der Text enthält rechtliche Begriffe und verweist auf spezifische Rechtsakte, was auf einen Urkundenregest hinweist."
http://www.regesta-imperii.de/id/1061-09-30_1_0_3_2_3_225_225,historiographisch,"Der Text beinhaltet narrative Elemente und historische Ereignisse, was auf einen historiographischen Regest hinweist."
http://www.regesta-imperii.de/id/1061-00-00_1_0_3_2_3_226_226,historiographisch,"Der Text beinhaltet narrative Elemente und historische Ereignisse, was auf einen historiographischen Regest hinweist."
http://www.regesta-imperii.de/id/1061-10-28_1_0_3_2_3_227_227,historiographisch,"Der Text beinhaltet narrative Elemente und historische Ereignisse, was auf einen historiographischen Regest hinweist."
http://www.regesta-imperii.de/id/1061-00-00_1_0_3_2_3_228_228,historiographisch,"Der Text beinhaltet narrative Elemente und historische Ereignisse, was auf einen historiographischen Regest hinweist."
http://www.regesta-imperii.de/id/1061-10-31_1_0_3_2_3_229_229,urkunde,"Der Text enthält rechtliche Begriffe und verweist auf spezifische Rechtsakte, was auf einen Urkundenregest hinweist."
http://www.regesta-imperii.de/id/1061-11-05_1_0_3_2_3_230_230,urkunde,"Der Text enthält rechtliche Begriffe und verweist auf spezifische Rechtsakte, was auf einen Urkundenregest hinweist."
http://www.regesta-imperii.de/id/1061-11-00_1_0_3_2_3_231_231,historiographisch,"Der Text beinhaltet narrative Elemente und historische Ereignisse, was auf einen historiographischen Regest hinweist."
http://www.regesta-imperii.de/id/1061-11-25_1_0_3_2_3_232_232,urkunde,"Der Text enthält rechtliche Begriffe und verweist auf spezifische Rechtsakte, was auf einen Urkundenregest hinweist."
http://www.regesta-imperii.de/id/1061-00-00_1_0_3_2_3_233_233,urkunde,"Der Text enthält rechtliche Begriffe und verweist auf spezifische Rechtsakte, was auf einen Urkundenregest hinweist."
http://www.regesta-imperii.de/id/1061-00-00_2_0_3_2_3_234_234,historiographisch,"Der Text beinhaltet narrative Elemente und historische Ereignisse, was auf einen historiographischen Regest hinweist."
http://www.regesta-imperii.de/id/1061-00-00_3_0_3_2_3_235_235,historiographisch,"Der Text beinhaltet narrative Elemente und historische Ereignisse, was auf einen historiographischen Regest hinweist."
http://www.regesta-imperii.de/id/1061-12-25_1_0_3_2_3_236_236,historiographisch,"Der Text beinhaltet narrative Elemente und historische Ereignisse, was auf einen historiographischen Regest hinweist."
http://www.regesta-imperii.de/id/1061-00-00_1_0_3_2_3_237_237,historiographisch,"Der Text beinhaltet narrative Elemente und historische Ereignisse, was auf einen historiographischen Regest hinweist."
http://www.regesta-imperii.de/id/1062-00-00_1_0_3_2_3_238_238,urkunde,"Der Text enthält rechtliche Begriffe und verweist auf spezifische Rechtsakte, was auf einen Urkundenregest hinweist."
http://www.regesta-imperii.de/id/1062-00-00_2_0_3_2_3_239_239,historiographisch,"Der Text beinhaltet narrative Elemente und historische Ereignisse, was auf einen historiographischen Regest hinweist."
http://www.regesta-imperii.de/id/1062-03-00_1_0_3_2_3_240_240,historiographisch,"Der Text beinhaltet narrative Elemente und historische Ereignisse, was auf einen historiographischen Regest hinweist."
http://www.regesta-imperii.de/id/1062-02-04_1_0_3_2_3_241_241,urkunde,"Der Text enthält rechtliche Begriffe und verweist auf spezifische Rechtsakte, was auf einen Urkundenregest hinweist."
http://www.regesta-imperii.de/id/1062-01-29_1_0_3_2_3_242_242,urkunde,"Der Text enthält rechtliche Begriffe und verweist auf spezifische Rechtsakte, was auf einen Urkundenregest hinweist."
http://www.regesta-imperii.de/id/1062-02-24_1_0_3_2_3_243_243,urkunde,"Der Text enthält rechtliche Begriffe und verweist auf spezifische Rechtsakte, was auf einen Urkundenregest hinweist."
http://www.regesta-imperii.de/id/1062-03-07_1_0_3_2_3_244_244,urkunde,"Der Text enthält rechtliche Begriffe und verweist auf spezifische Rechtsakte, was auf einen Urkundenregest hinweist."
http://www.regesta-imperii.de/id/1062-03-09_1_0_3_2_3_245_245,urkunde,"Der Text enthält rechtliche Begriffe und verweist auf spezifische Rechtsakte, was auf einen Urkundenregest hinweist."
http://www.regesta-imperii.de/id/1062-03-13_1_0_3_2_3_246_246,urkunde,"Der Text enthält rechtliche Begriffe und verweist auf spezifische Rechtsakte, was auf einen Urkundenregest hinweist."
http://www.regesta-imperii.de/id/1062-03-19_1_0_3_2_3_247_247,urkunde,"Der Text enthält rechtliche Begriffe und verweist auf spezifische Rechtsakte, was auf einen Urkundenregest hinweist."
http://www.regesta-imperii.de/id/1062-00-00_1_0_3_2_3_248_248,historiographisch,"Der Text beinhaltet narrative Elemente und historische Ereignisse, was auf einen historiographischen Regest hinweist."
http://www.regesta-imperii.de/id/1062-03-31_1_0_3_2_3_249_249,historiographisch,"Der Text beinhaltet narrative Elemente und historische Ereignisse, was auf einen historiographischen Regest hinweist."
http://www.regesta-imperii.de/id/1062-00-00_1_0_3_2_3_250_250,historiographisch,"Der Text beinhaltet narrative Elemente und historische Ereignisse, was auf einen historiographischen Regest hinweist."
http://www.regesta-imperii.de/id/1062-00-00_2_0_3_2_3_251_251,historiographisch,"Der Text beinhaltet narrative Elemente und historische Ereignisse, was auf einen historiographischen Regest hinweist."
http://www.regesta-imperii.de/id/1062-04-00_1_0_3_2_3_252_252,historiographisch,"Der Text beinhaltet narrative Elemente und historische Ereignisse, was auf einen historiographischen Regest hinweist."
http://www.regesta-imperii.de/id/1062-04-00_2_0_3_2_3_253_253,historiographisch,"Der Text beinhaltet narrative Elemente und historische Ereignisse, was auf einen historiographischen Regest hinweist."
http://www.regesta-imperii.de/id/1062-04-00_3_0_3_2_3_254_254,historiographisch,"Der Text beinhaltet narrative Elemente und historische Ereignisse, was auf einen historiographischen Regest hinweist."
http://www.regesta-imperii.de/id/1062-04-00_4_0_3_2_3_255_255,historiographisch,"Der Text beinhaltet narrative Elemente und historische Ereignisse, was auf einen historiographischen Regest hinweist."
http://www.regesta-imperii.de/id/1062-00-00_1_0_3_2_3_256_256,urkunde,"Der Text enthält rechtliche Begriffe und verweist auf spezifische Rechtsakte, was auf einen Urkundenregest hinweist."
http://www.regesta-imperii.de/id/1062-04-00_1_0_3_2_3_257_257,urkunde,"Der Text enthält rechtliche Begriffe und verweist auf spezifische Rechtsakte, was auf einen Urkundenregest hinweist."
http://www.regesta-imperii.de/id/1062-05-00_1_0_3_2_3_258_258,historiographisch,"Der Text beinhaltet narrative Elemente und historische Ereignisse, was auf einen historiographischen Regest hinweist."
http://www.regesta-imperii.de/id/1062-05-00_2_0_3_2_3_259_259,historiographisch,"Der Text beinhaltet narrative Elemente und historische Ereignisse, was auf einen historiographischen Regest hinweist."
http://www.regesta-imperii.de/id/1062-05-19_1_0_3_2_3_260_260,historiographisch,"Der Text beinhaltet narrative Elemente und historische Ereignisse, was auf einen historiographischen Regest hinweist."
http://www.regesta-imperii.de/id/1062-07-13_1_0_3_2_3_261_261,urkunde,"Der Text enthält rechtliche Begriffe und verweist auf spezifische Rechtsakte, was auf einen Urkundenregest hinweist."
http://www.regesta-imperii.de/id/1062-07-19_1_0_3_2_3_262_262,urkunde,"Der Text enthält rechtliche Begriffe und verweist auf spezifische Rechtsakte, was auf einen Urkundenregest hinweist."
http://www.regesta-imperii.de/id/1062-08-23_1_0_3_2_3_263_263,urkunde,"Der Text enthält rechtliche Begriffe und verweist auf spezifische Rechtsakte, was auf einen Urkundenregest hinweist."
http://www.regesta-imperii.de/id/1062-00-00_1_0_3_2_3_264_264,historiographisch,"Der Text beinhaltet narrative Elemente und historische Ereignisse, was auf einen historiographischen Regest hinweist."
http://www.regesta-imperii.de/id/1062-09-21_1_0_3_2_3_265_265,urkunde,"Der Text enthält rechtliche Begriffe und verweist auf spezifische Rechtsakte, was auf einen Urkundenregest hinweist."
http://www.regesta-imperii.de/id/1062-10-14_1_0_3_2_3_266_266,urkunde,"Der Text enthält rechtliche Begriffe und verweist auf spezifische Rechtsakte, was auf einen Urkundenregest hinweist."
http://www.regesta-imperii.de/id/1062-10-24_1_0_3_2_3_267_267,historiographisch,"Der Text beinhaltet narrative Elemente und historische Ereignisse, was auf einen historiographischen Regest hinweist."
http://www.regesta-imperii.de/id/1062-10-24_2_0_3_2_3_268_268,historiographisch,"Der Text beinhaltet narrative Elemente und historische Ereignisse, was auf einen historiographischen Regest hinweist."
http://www.regesta-imperii.de/id/1062-10-27_1_0_3_2_3_269_269,historiographisch,"Der Text beinhaltet narrative Elemente und historische Ereignisse, was auf einen historiographischen Regest hinweist."
http://www.regesta-imperii.de/id/1062-10-29_1_0_3_2_3_270_270,urkunde,"Der Text enthält rechtliche Begriffe und verweist auf spezifische Rechtsakte, was auf einen Urkundenregest hinweist."
http://www.regesta-imperii.de/id/1062-11-26_1_0_3_2_3_271_271,urkunde,"Der Text enthält rechtliche Begriffe und verweist auf spezifische Rechtsakte, was auf einen Urkundenregest hinweist."
http://www.regesta-imperii.de/id/1062-12-11_1_0_3_2_3_272_272,urkunde,"Der Text enthält rechtliche Begriffe und verweist auf spezifische Rechtsakte, was auf einen Urkundenregest hinweist."
http://www.regesta-imperii.de/id/1062-12-12_1_0_3_2_3_273_273,urkunde,"Der Text enthält rechtliche Begriffe und verweist auf spezifische Rechtsakte, was auf einen Urkundenregest hinweist."
http://www.regesta-imperii.de/id/1062-12-16_1_0_3_2_3_274_274,urkunde,"Der Text enthält rechtliche Begriffe und verweist auf spezifische Rechtsakte, was auf einen Urkundenregest hinweist."
http://www.regesta-imperii.de/id/1062-11-00_1_0_3_2_3_275_275,historiographisch,"Der Text beinhaltet narrative Elemente und historische Ereignisse, was auf einen historiographischen Regest hinweist."
http://www.regesta-imperii.de/id/1062-12-25_1_0_3_2_3_276_276,historiographisch,"Der Text beinhaltet narrative Elemente und historische Ereignisse, was auf einen historiographischen Regest hinweist."
http://www.regesta-imperii.de/id/1062-12-00_1_0_3_2_3_277_277,historiographisch,"Der Text beinhaltet narrative Elemente und historische Ereignisse, was auf einen historiographischen Regest hinweist."
http://www.regesta-imperii.de/id/1062-00-00_1_0_3_2_3_278_278,historiographisch,"Der Text beinhaltet narrative Elemente und historische Ereignisse, was auf einen historiographischen Regest hinweist."
http://www.regesta-imperii.de/id/1063-01-13_1_0_3_2_3_279_279,urkunde,"Der Text enthält rechtliche Begriffe und verweist auf spezifische Rechtsakte, was auf einen Urkundenregest hinweist."
http://www.regesta-imperii.de/id/1063-01-29_1_0_3_2_3_280_280,urkunde,"Der Text enthält rechtliche Begriffe und verweist auf spezifische Rechtsakte, was auf einen Urkundenregest hinweist."
http://www.regesta-imperii.de/id/1063-01-31_1_0_3_2_3_281_281,urkunde,"Der Text enthält rechtliche Begriffe und verweist auf spezifische Rechtsakte, was auf einen Urkundenregest hinweist."
http://www.regesta-imperii.de/id/1063-00-00_1_0_3_2_3_282_282,historiographisch,"Der Text beinhaltet narrative Elemente und historische Ereignisse, was auf einen historiographischen Regest hinweist."
http://www.regesta-imperii.de/id/1063-04-20_1_0_3_2_3_283_283,historiographisch,"Der Text beinhaltet narrative Elemente und historische Ereignisse, was auf einen historiographischen Regest hinweist."
http://www.regesta-imperii.de/id/1063-06-07_1_0_3_2_3_284_284,historiographisch,"Der Text beinhaltet narrative Elemente und historische Ereignisse, was auf einen historiographischen Regest hinweist."
http://www.regesta-imperii.de/id/1063-06-08_1_0_3_2_3_285_285,historiographisch,"Der Text beinhaltet narrative Elemente und historische Ereignisse, was auf einen historiographischen Regest hinweist."
http://www.regesta-imperii.de/id/1063-06-14_1_0_3_2_3_286_286,historiographisch,"Der Text beinhaltet narrative Elemente und historische Ereignisse, was auf einen historiographischen Regest hinweist."
http://www.regesta-imperii.de/id/1063-06-00_1_0_3_2_3_287_287,historiographisch,"Der Text beinhaltet narrative Elemente und historische Ereignisse, was auf einen historiographischen Regest hinweist."
http://www.regesta-imperii.de/id/1063-06-24_1_0_3_2_3_288_288,urkunde,"Der Text enthält rechtliche Begriffe und verweist auf spezifische Rechtsakte, was auf einen Urkundenregest hinweist."
http://www.regesta-imperii.de/id/1063-06-27_1_0_3_2_3_289_289,urkunde,"Der Text enthält rechtliche Begriffe und verweist auf spezifische Rechtsakte, was auf einen Urkundenregest hinweist."
http://www.regesta-imperii.de/id/1063-06-24_1_0_3_2_3_290_290,historiographisch,"Der Text beinhaltet narrative Elemente und historische Ereignisse, was auf einen historiographischen Regest hinweist."
http://www.regesta-imperii.de/id/1063-06-24_2_0_3_2_3_291_291,historiographisch,"Der Text beinhaltet narrative Elemente und historische Ereignisse, was auf einen historiographischen Regest hinweist."
http://www.regesta-imperii.de/id/1063-06-24_3_0_3_2_3_292_292,historiographisch,"Der Text beinhaltet narrative Elemente und historische Ereignisse, was auf einen historiographischen Regest hinweist."
http://www.regesta-imperii.de/id/1063-06-00_1_0_3_2_3_293_293,historiographisch,"Der Text beinhaltet narrative Elemente und historische Ereignisse, was auf einen historiographischen Regest hinweist."
http://www.regesta-imperii.de/id/1063-00-00_1_0_3_2_3_294_294,historiographisch,"Der Text beinhaltet narrative Elemente und historische Ereignisse, was auf einen historiographischen Regest hinweist."
http://www.regesta-imperii.de/id/1063-07-14_1_0_3_2_3_295_295,historiographisch,"Der Text beinhaltet narrative Elemente und historische Ereignisse, was auf einen historiographischen Regest hinweist."
http://www.regesta-imperii.de/id/1063-07-17_1_0_3_2_3_296_296,urkunde,"Der Text enthält rechtliche Begriffe und verweist auf spezifische Rechtsakte, was auf einen Urkundenregest hinweist."
http://www.regesta-imperii.de/id/1063-07-25_1_0_3_2_3_297_297,urkunde,"Der Text enthält rechtliche Begriffe und verweist auf spezifische Rechtsakte, was auf einen Urkundenregest hinweist."
http://www.regesta-imperii.de/id/1063-07-30_1_0_3_2_3_298_298,urkunde,"Der Text enthält rechtliche Begriffe und verweist auf spezifische Rechtsakte, was auf einen Urkundenregest hinweist."
http://www.regesta-imperii.de/id/1063-08-07_1_0_3_2_3_299_299,urkunde,"Der Text enthält rechtliche Begriffe und verweist auf spezifische Rechtsakte, was auf einen Urkundenregest hinweist."
http://www.regesta-imperii.de/id/1063-07-00_1_0_3_2_3_300_300,historiographisch,"Der Text beinhaltet narrative Elemente und historische Ereignisse, was auf einen historiographischen Regest hinweist."
http://www.regesta-imperii.de/id/1063-08-20_1_0_3_2_3_301_301,urkunde,"Der Text enthält rechtliche Begriffe und verweist auf spezifische Rechtsakte, was auf einen Urkundenregest hinweist."
http://www.regesta-imperii.de/id/1063-08-20_2_0_3_2_3_302_302,urkunde,"Der Text enthält rechtliche Begriffe und verweist auf spezifische Rechtsakte, was auf einen Urkundenregest hinweist."
http://www.regesta-imperii.de/id/1063-08-00_1_0_3_2_3_303_303,historiographisch,"Der Text beinhaltet narrative Elemente und historische Ereignisse, was auf einen historiographischen Regest hinweist."
http://www.regesta-imperii.de/id/1063-09-00_1_0_3_2_3_304_304,historiographisch,"Der Text beinhaltet narrative Elemente und historische Ereignisse, was auf einen historiographischen Regest hinweist."
http://www.regesta-imperii.de/id/1063-09-27_1_0_3_2_3_305_305,urkunde,"Der Text enthält rechtliche Begriffe und verweist auf spezifische Rechtsakte, was auf einen Urkundenregest hinweist."
http://www.regesta-imperii.de/id/1063-09-00_1_0_3_2_3_306_306,historiographisch,"Der Text beinhaltet narrative Elemente und historische Ereignisse, was auf einen historiographischen Regest hinweist."
http://www.regesta-imperii.de/id/1063-08-31_1_0_3_2_3_307_307,historiographisch,"Der Text beinhaltet narrative Elemente und historische Ereignisse, was auf einen historiographischen Regest hinweist."
http://www.regesta-imperii.de/id/1063-00-00_1_0_3_2_3_308_308,historiographisch,"Der Text beinhaltet narrative Elemente und historische Ereignisse, was auf einen historiographischen Regest hinweist."
http://www.regesta-imperii.de/id/1063-10-24_1_0_3_2_3_309_309,urkunde,"Der Text enthält rechtliche Begriffe und verweist auf spezifische Rechtsakte, was auf einen Urkundenregest hinweist."
http://www.regesta-imperii.de/id/1063-10-24_2_0_3_2_3_310_310,urkunde,"Der Text enthält rechtliche Begriffe und verweist auf spezifische Rechtsakte, was auf einen Urkundenregest hinweist."
http://www.regesta-imperii.de/id/1063-10-25_1_0_3_2_3_311_311,urkunde,"Der Text enthält rechtliche Begriffe und verweist auf spezifische Rechtsakte, was auf einen Urkundenregest hinweist."
http://www.regesta-imperii.de/id/1063-10-26_1_0_3_2_3_312_312,urkunde,"Der Text enthält rechtliche Begriffe und verweist auf spezifische Rechtsakte, was auf einen Urkundenregest hinweist."
http://www.regesta-imperii.de/id/1063-10-24_1_0_3_2_3_313_313,historiographisch,"Der Text beinhaltet narrative Elemente und historische Ereignisse, was auf einen historiographischen Regest hinweist."
http://www.regesta-imperii.de/id/1063-00-00_1_0_3_2_3_314_314,historiographisch,"Der Text beinhaltet narrative Elemente und historische Ereignisse, was auf einen historiographischen Regest hinweist."
http://www.regesta-imperii.de/id/1063-12-25_1_0_3_2_3_315_315,historiographisch,"Der Text beinhaltet narrative Elemente und historische Ereignisse, was auf einen historiographischen Regest hinweist."
http://www.regesta-imperii.de/id/1063-12-28_1_0_3_2_3_316_316,urkunde,"Der Text enthält rechtliche Begriffe und verweist auf spezifische Rechtsakte, was auf einen Urkundenregest hinweist."
http://www.regesta-imperii.de/id/1063-00-00_1_0_3_2_3_317_317,historiographisch,"Der Text beinhaltet narrative Elemente und historische Ereignisse, was auf einen historiographischen Regest hinweist."
http://www.regesta-imperii.de/id/1063-12-30_1_0_3_2_3_318_318,historiographisch,"Der Text beinhaltet narrative Elemente und historische Ereignisse, was auf einen historiographischen Regest hinweist."
http://www.regesta-imperii.de/id/1063-00-00_1_0_3_2_3_319_319,historiographisch,"Der Text beinhaltet narrative Elemente und historische Ereignisse, was auf einen historiographischen Regest hinweist."
http://www.regesta-imperii.de/id/1064-01-13_1_0_3_2_3_320_320,urkunde,"Der Text enthält rechtliche Begriffe und verweist auf spezifische Rechtsakte, was auf einen Urkundenregest hinweist."
http://www.regesta-imperii.de/id/1064-01-15_1_0_3_2_3_321_321,urkunde,"Der Text enthält rechtliche Begriffe und verweist auf spezifische Rechtsakte, was auf einen Urkundenregest hinweist."
http://www.regesta-imperii.de/id/1064-01-17_1_0_3_2_3_322_322,urkunde,"Der Text enthält rechtliche Begriffe und verweist auf spezifische Rechtsakte, was auf einen Urkundenregest hinweist."
http://www.regesta-imperii.de/id/1064-01-17_2_0_3_2_3_323_323,urkunde,"Der Text enthält rechtliche Begriffe und verweist auf spezifische Rechtsakte, was auf einen Urkundenregest hinweist."
http://www.regesta-imperii.de/id/1064-02-02_1_0_3_2_3_324_324,historiographisch,"Der Text beinhaltet narrative Elemente und historische Ereignisse, was auf einen historiographischen Regest hinweist."
http://www.regesta-imperii.de/id/1064-02-04_1_0_3_2_3_325_325,historiographisch,"Der Text beinhaltet narrative Elemente und historische Ereignisse, was auf einen historiographischen Regest hinweist."
http://www.regesta-imperii.de/id/1062-02-00_1_0_3_2_3_326_326,historiographisch,"Der Text beinhaltet narrative Elemente und historische Ereignisse, was auf einen historiographischen Regest hinweist."
http://www.regesta-imperii.de/id/1064-02-08_1_0_3_2_3_327_327,historiographisch,"Der Text beinhaltet narrative Elemente und historische Ereignisse, was auf einen historiographischen Regest hinweist."
http://www.regesta-imperii.de/id/1064-02-23_1_0_3_2_3_328_328,urkunde,"Der Text enthält rechtliche Begriffe und verweist auf spezifische Rechtsakte, was auf einen Urkundenregest hinweist."
http://www.regesta-imperii.de/id/1064-03-01_1_0_3_2_3_329_329,urkunde,"Der Text enthält rechtliche Begriffe und verweist auf spezifische Rechtsakte, was auf einen Urkundenregest hinweist."
http://www.regesta-imperii.de/id/1064-04-11_1_0_3_2_3_330_330,historiographisch,"Der Text beinhaltet narrative Elemente und historische Ereignisse, was auf einen historiographischen Regest hinweist."
http://www.regesta-imperii.de/id/1064-04-15_1_0_3_2_3_331_331,urkunde,"Der Text enthält rechtliche Begriffe und verweist auf spezifische Rechtsakte, was auf einen Urkundenregest hinweist."
http://www.regesta-imperii.de/id/1064-04-30_1_0_3_2_3_332_332,urkunde,"Der Text enthält rechtliche Begriffe und verweist auf spezifische Rechtsakte, was auf einen Urkundenregest hinweist."
http://www.regesta-imperii.de/id/1064-05-02_1_0_3_2_3_333_333,urkunde,"Der Text enthält rechtliche Begriffe und verweist auf spezifische Rechtsakte, was auf einen Urkundenregest hinweist."
http://www.regesta-imperii.de/id/1064-05-00_1_0_3_2_3_334_334,historiographisch,"Der Text beinhaltet narrative Elemente und historische Ereignisse, was auf einen historiographischen Regest hinweist."
http://www.regesta-imperii.de/id/1064-05-31_1_0_3_2_3_335_335,urkunde,"Der Text enthält rechtliche Begriffe und verweist auf spezifische Rechtsakte, was auf einen Urkundenregest hinweist."
http://www.regesta-imperii.de/id/1064-05-00_1_0_3_2_3_336_336,historiographisch,"Der Text beinhaltet narrative Elemente und historische Ereignisse, was auf einen historiographischen Regest hinweist."
http://www.regesta-imperii.de/id/1064-07-10_1_0_3_2_3_337_337,urkunde,"Der Text enthält rechtliche Begriffe und verweist auf spezifische Rechtsakte, was auf einen Urkundenregest hinweist."
http://www.regesta-imperii.de/id/1064-07-11_1_0_3_2_3_338_338,urkunde,"Der Text enthält rechtliche Begriffe und verweist auf spezifische Rechtsakte, was auf einen Urkundenregest hinweist."
http://www.regesta-imperii.de/id/1064-07-19_1_0_3_2_3_339_339,urkunde,"Der Text enthält rechtliche Begriffe und verweist auf spezifische Rechtsakte, was auf einen Urkundenregest hinweist."
http://www.regesta-imperii.de/id/1064-07-20_1_0_3_2_3_340_340,urkunde,"Der Text enthält rechtliche Begriffe und verweist auf spezifische Rechtsakte, was auf einen Urkundenregest hinweist."
http://www.regesta-imperii.de/id/1064-07-19_1_0_3_2_3_341_341,urkunde,"Der Text enthält rechtliche Begriffe und verweist auf spezifische Rechtsakte, was auf einen Urkundenregest hinweist."
http://www.regesta-imperii.de/id/1064-07-20_1_0_3_2_3_342_342,urkunde,"Der Text enthält rechtliche Begriffe und verweist auf spezifische Rechtsakte, was auf einen Urkundenregest hinweist."
http://www.regesta-imperii.de/id/1064-07-31_1_0_3_2_3_343_343,urkunde,"Der Text enthält rechtliche Begriffe und verweist auf spezifische Rechtsakte, was auf einen Urkundenregest hinweist."
http://www.regesta-imperii.de/id/1064-00-00_1_0_3_2_3_344_344,urkunde,"Der Text enthält rechtliche Begriffe und verweist auf spezifische Rechtsakte, was auf einen Urkundenregest hinweist."
http://www.regesta-imperii.de/id/1064-09-00_1_0_3_2_3_345_345,historiographisch,"Der Text beinhaltet narrative Elemente und historische Ereignisse, was auf einen historiographischen Regest hinweist."
http://www.regesta-imperii.de/id/1064-10-02_1_0_3_2_3_346_346,historiographisch,"Der Text beinhaltet narrative Elemente und historische Ereignisse, was auf einen historiographischen Regest hinweist."
http://www.regesta-imperii.de/id/1064-09-00_1_0_3_2_3_347_347,historiographisch,"Der Text beinhaltet narrative Elemente und historische Ereignisse, was auf einen historiographischen Regest hinweist."
http://www.regesta-imperii.de/id/1064-09-00_2_0_3_2_3_348_348,historiographisch,"Der Text beinhaltet narrative Elemente und historische Ereignisse, was auf einen historiographischen Regest hinweist."
http://www.regesta-imperii.de/id/1064-00-00_1_0_3_2_3_349_349,historiographisch,"Der Text beinhaltet narrative Elemente und historische Ereignisse, was auf einen historiographischen Regest hinweist."
http://www.regesta-imperii.de/id/1064-10-26_1_0_3_2_3_350_350,historiographisch,"Der Text beinhaltet narrative Elemente und historische Ereignisse, was auf einen historiographischen Regest hinweist."
http://www.regesta-imperii.de/id/1064-11-00_1_0_3_2_3_351_351,historiographisch,"Der Text beinhaltet narrative Elemente und historische Ereignisse, was auf einen historiographischen Regest hinweist."
http://www.regesta-imperii.de/id/1064-11-18_1_0_3_2_3_352_352,historiographisch,"Der Text beinhaltet narrative Elemente und historische Ereignisse, was auf einen historiographischen Regest hinweist."
http://www.regesta-imperii.de/id/1064-12-05_1_0_3_2_3_353_353,urkunde,"Der Text enthält rechtliche Begriffe und verweist auf spezifische Rechtsakte, was auf einen Urkundenregest hinweist."
http://www.regesta-imperii.de/id/1064-12-25_1_0_3_2_3_354_354,historiographisch,"Der Text beinhaltet narrative Elemente und historische Ereignisse, was auf einen historiographischen Regest hinweist."
http://www.regesta-imperii.de/id/1065-00-00_1_0_3_2_3_355_355,historiographisch,"Der Text beinhaltet narrative Elemente und historische Ereignisse, was auf einen historiographischen Regest hinweist."
http://www.regesta-imperii.de/id/1065-00-00_2_0_3_2_3_356_356,historiographisch,"Der Text beinhaltet narrative Elemente und historische Ereignisse, was auf einen historiographischen Regest hinweist."
http://www.regesta-imperii.de/id/1065-00-00_3_0_3_2_3_357_357,historiographisch,"Der Text beinhaltet narrative Elemente und historische Ereignisse, was auf einen historiographischen Regest hinweist."
http://www.regesta-imperii.de/id/1065-03-20_1_0_3_2_3_358_358,historiographisch,"Der Text beinhaltet narrative Elemente und historische Ereignisse, was auf einen historiographischen Regest hinweist."
http://www.regesta-imperii.de/id/1065-03-27_1_0_3_2_3_359_359,historiographisch,"Der Text beinhaltet narrative Elemente und historische Ereignisse, was auf einen historiographischen Regest hinweist."
http://www.regesta-imperii.de/id/1065-03-29_1_0_3_2_3_360_360,historiographisch,"Der Text beinhaltet narrative Elemente und historische Ereignisse, was auf einen historiographischen Regest hinweist."
http://www.regesta-imperii.de/id/1065-03-00_1_0_3_2_3_361_361,historiographisch,"Der Text beinhaltet narrative Elemente und historische Ereignisse, was auf einen historiographischen Regest hinweist."
http://www.regesta-imperii.de/id/1065-03-29_1_0_3_2_3_362_362,historiographisch,"Der Text beinhaltet narrative Elemente und historische Ereignisse, was auf einen historiographischen Regest hinweist."
http://www.regesta-imperii.de/id/1065-03-00_1_0_3_2_3_363_363,historiographisch,"Der Text beinhaltet narrative Elemente und historische Ereignisse, was auf einen historiographischen Regest hinweist."
